/home/kiennt/workspace/cas-server-user-profile/src/main/java/vn/tcbs/cas/profile/service/UserService.java
/home/kiennt/workspace/cas-server-user-profile/src/main/java/vn/tcbs/cas/profile/dao/ForgotPasswordDAOImpl.java
/home/kiennt/workspace/cas-server-user-profile/src/main/java/vn/tcbs/cas/profile/controller/PasswordController.java
/home/kiennt/workspace/cas-server-user-profile/src/main/java/vn/tcbs/tool/base/TcbsSqlServerDialect.java
/home/kiennt/workspace/cas-server-user-profile/src/main/java/vn/tcbs/tool/base/TcbsFileUtils.java
/home/kiennt/workspace/cas-server-user-profile/src/main/java/vn/tcbs/cas/profile/entity/TcbsUser.java
/home/kiennt/workspace/cas-server-user-profile/src/main/java/vn/tcbs/cas/profile/publicapi/AccountWebService.java
/home/kiennt/workspace/cas-server-user-profile/src/main/java/vn/tcbs/tool/base/TcbsUtils.java
/home/kiennt/workspace/cas-server-user-profile/src/main/java/vn/tcbs/cas/profile/dao/UserDAOImpl.java
/home/kiennt/workspace/cas-server-user-profile/src/main/java/vn/tcbs/cas/profile/service/PasswordService.java
/home/kiennt/workspace/cas-server-user-profile/src/main/java/vn/tcbs/cas/profile/service/UserServiceImpl.java
/home/kiennt/workspace/cas-server-user-profile/src/main/java/vn/tcbs/cas/profile/dao/ForgotPasswordDAO.java
/home/kiennt/workspace/cas-server-user-profile/src/main/java/vn/tcbs/tool/base/TcbsSoapUtils.java
/home/kiennt/workspace/cas-server-user-profile/src/main/java/vn/tcbs/cas/profile/service/PasswordServiceImpl.java
/home/kiennt/workspace/cas-server-user-profile/src/main/java/vn/tcbs/tool/base/BaseDAO.java
/home/kiennt/workspace/cas-server-user-profile/src/main/java/vn/tcbs/cas/profile/publicapi/AccountWebServiceImpl.java
/home/kiennt/workspace/cas-server-user-profile/src/main/java/vn/tcbs/tool/base/ResponseData.java
/home/kiennt/workspace/cas-server-user-profile/src/main/java/vn/tcbs/cas/profile/dao/UserDAO.java
/home/kiennt/workspace/cas-server-user-profile/src/main/java/vn/tcbs/cas/profile/entity/TcbsUserForgotPassword.java
